%YAML 1.1
%TAG !u! tag:unity3d.com,2011:
--- !u!114 &11400000
MonoBehaviour:
  m_ObjectHideFlags: 0
  m_CorrespondingSourceObject: {fileID: 0}
  m_PrefabInstance: {fileID: 0}
  m_PrefabAsset: {fileID: 0}
  m_GameObject: {fileID: 0}
  m_Enabled: 1
  m_EditorHideFlags: 0
  m_Script: {fileID: 11500000, guid: f7c0b003e65506246b402fdb57e61ffe, type: 3}
  m_Name: PositionList
  m_EditorClassIdentifier: 
  position:
  - {x: -50, y: 0, z: -60}
  - {x: -50, y: 0, z: -50}
  - {x: -50, y: 0, z: -40}
  - {x: -50, y: 0, z: -30}
  - {x: -50, y: 0, z: -20}
  - {x: -50, y: 0, z: -10}
  - {x: -50, y: 0, z: 0}
  - {x: -50, y: 0, z: 10}
  - {x: -50, y: 0, z: 20}
  - {x: -50, y: 0, z: 30}
  - {x: -40, y: 0, z: -60}
  - {x: -40, y: 0, z: -50}
  - {x: -40, y: 0, z: -40}
  - {x: -40, y: 0, z: -30}
  - {x: -40, y: 0, z: -20}
  - {x: -40, y: 0, z: -10}
  - {x: -40, y: 0, z: 0}
  - {x: -40, y: 0, z: 10}
  - {x: -40, y: 0, z: 20}
  - {x: -40, y: 0, z: 30}
  - {x: -30, y: 0, z: -60}
  - {x: -30, y: 0, z: -50}
  - {x: -30, y: 0, z: -40}
  - {x: -30, y: 0, z: -30}
  - {x: -30, y: 0, z: -20}
  - {x: -30, y: 0, z: -10}
  - {x: -30, y: 0, z: 0}
  - {x: -30, y: 0, z: 10}
  - {x: -30, y: 0, z: 20}
  - {x: -30, y: 0, z: 30}
  - {x: -20, y: 0, z: -60}
  - {x: -20, y: 0, z: -50}
  - {x: -20, y: 0, z: -40}
  - {x: -20, y: 0, z: -30}
  - {x: -20, y: 0, z: -20}
  - {x: -20, y: 0, z: -10}
  - {x: -20, y: 0, z: 0}
  - {x: -20, y: 0, z: 10}
  - {x: -20, y: 0, z: 20}
  - {x: -20, y: 0, z: 30}
  - {x: -10, y: 0, z: -60}
  - {x: -10, y: 0, z: -50}
  - {x: -10, y: 0, z: -40}
  - {x: -10, y: 0, z: -30}
  - {x: -10, y: 0, z: -20}
  - {x: -10, y: 0, z: -10}
  - {x: -10, y: 0, z: 0}
  - {x: -10, y: 0, z: 10}
  - {x: -10, y: 0, z: 20}
  - {x: -10, y: 0, z: 30}
  - {x: 0, y: 0, z: -60}
  - {x: 0, y: 0, z: -50}
  - {x: 0, y: 0, z: -40}
  - {x: 0, y: 0, z: -30}
  - {x: 0, y: 0, z: -20}
  - {x: 0, y: 0, z: -10}
  - {x: 0, y: 0, z: 0}
  - {x: 0, y: 0, z: 10}
  - {x: 0, y: 0, z: 20}
  - {x: 0, y: 0, z: 30}
  - {x: 10, y: 0, z: -60}
  - {x: 10, y: 0, z: -50}
  - {x: 10, y: 0, z: -40}
  - {x: 10, y: 0, z: -30}
  - {x: 10, y: 0, z: -20}
  - {x: 10, y: 0, z: -10}
  - {x: 10, y: 0, z: 0}
  - {x: 10, y: 0, z: 10}
  - {x: 10, y: 0, z: 20}
  - {x: 10, y: 0, z: 30}
  - {x: 20, y: 0, z: -60}
  - {x: 20, y: 0, z: -50}
  - {x: 20, y: 0, z: -40}
  - {x: 20, y: 0, z: -30}
  - {x: 20, y: 0, z: -20}
  - {x: 20, y: 0, z: -10}
  - {x: 20, y: 0, z: 0}
  - {x: 20, y: 0, z: 10}
  - {x: 20, y: 0, z: 20}
  - {x: 20, y: 0, z: 30}
  - {x: 30, y: 0, z: -60}
  - {x: 30, y: 0, z: -50}
  - {x: 30, y: 0, z: -40}
  - {x: 30, y: 0, z: -30}
  - {x: 30, y: 0, z: -20}
  - {x: 30, y: 0, z: -10}
  - {x: 30, y: 0, z: 0}
  - {x: 30, y: 0, z: 10}
  - {x: 30, y: 0, z: 20}
  - {x: 30, y: 0, z: 30}
  - {x: 40, y: 0, z: -60}
  - {x: 40, y: 0, z: -50}
  - {x: 40, y: 0, z: -40}
  - {x: 40, y: 0, z: -30}
  - {x: 40, y: 0, z: -20}
  - {x: 40, y: 0, z: -10}
  - {x: 40, y: 0, z: 0}
  - {x: 40, y: 0, z: 10}
  - {x: 40, y: 0, z: 20}
  - {x: 40, y: 0, z: 30}
  - {x: -50, y: 0, z: 40}
  - {x: -40, y: 0, z: 40}
  - {x: -30, y: 0, z: 40}
  - {x: -20, y: 0, z: 40}
  - {x: -10, y: 0, z: 40}
  - {x: 0, y: 0, z: 40}
  - {x: 10, y: 0, z: 40}
  - {x: 20, y: 0, z: 40}
  - {x: 30, y: 0, z: 40}
  - {x: 40, y: 0, z: 40}
  - {x: -50, y: 0, z: 50}
  - {x: -40, y: 0, z: 50}
  - {x: -30, y: 0, z: 50}
  - {x: -20, y: 0, z: 50}
  - {x: -10, y: 0, z: 50}
  - {x: 0, y: 0, z: 50}
  - {x: 10, y: 0, z: 50}
  - {x: 20, y: 0, z: 50}
  - {x: 30, y: 0, z: 50}
  - {x: 40, y: 0, z: 50}
  - {x: -50, y: 0, z: 60}
  - {x: -40, y: 0, z: 60}
  - {x: -30, y: 0, z: 60}
  - {x: -20, y: 0, z: 60}
  - {x: -10, y: 0, z: 60}
  - {x: 0, y: 0, z: 60}
  - {x: 10, y: 0, z: 60}
  - {x: 20, y: 0, z: 60}
  - {x: 30, y: 0, z: 60}
  - {x: 40, y: 0, z: 60}
  - {x: -50, y: 0, z: 70}
  - {x: -40, y: 0, z: 70}
  - {x: -30, y: 0, z: 70}
  - {x: -20, y: 0, z: 70}
  - {x: -10, y: 0, z: 70}
  - {x: 0, y: 0, z: 70}
  - {x: 10, y: 0, z: 70}
  - {x: 20, y: 0, z: 70}
  - {x: 30, y: 0, z: 70}
  - {x: 40, y: 0, z: 70}
  - {x: -50, y: 0, z: 80}
  - {x: -40, y: 0, z: 80}
  - {x: -30, y: 0, z: 80}
  - {x: -20, y: 0, z: 80}
  - {x: -10, y: 0, z: 80}
  - {x: 0, y: 0, z: 80}
  - {x: 10, y: 0, z: 80}
  - {x: 20, y: 0, z: 80}
  - {x: 30, y: 0, z: 80}
  - {x: 40, y: 0, z: 80}
  - {x: -50, y: 0, z: 90}
  - {x: -40, y: 0, z: 90}
  - {x: -30, y: 0, z: 90}
  - {x: -20, y: 0, z: 90}
  - {x: -10, y: 0, z: 90}
  - {x: 0, y: 0, z: 90}
  - {x: 10, y: 0, z: 90}
  - {x: 20, y: 0, z: 90}
  - {x: 30, y: 0, z: 90}
  - {x: 40, y: 0, z: 90}
  - {x: -50, y: 0, z: 100}
  - {x: -40, y: 0, z: 100}
  - {x: -30, y: 0, z: 100}
  - {x: -20, y: 0, z: 100}
  - {x: -10, y: 0, z: 100}
  - {x: 0, y: 0, z: 100}
  - {x: 10, y: 0, z: 100}
  - {x: 20, y: 0, z: 100}
  - {x: 30, y: 0, z: 100}
  - {x: 40, y: 0, z: 100}
  - {x: -50, y: 0, z: 110}
  - {x: -40, y: 0, z: 110}
  - {x: -30, y: 0, z: 110}
  - {x: -20, y: 0, z: 110}
  - {x: -10, y: 0, z: 110}
  - {x: 0, y: 0, z: 110}
  - {x: 10, y: 0, z: 110}
  - {x: 20, y: 0, z: 110}
  - {x: 30, y: 0, z: 110}
  - {x: 40, y: 0, z: 110}
  - {x: -50, y: 0, z: 120}
  - {x: -40, y: 0, z: 120}
  - {x: -30, y: 0, z: 120}
  - {x: -20, y: 0, z: 120}
  - {x: -10, y: 0, z: 120}
  - {x: 0, y: 0, z: 120}
  - {x: 10, y: 0, z: 120}
  - {x: 20, y: 0, z: 120}
  - {x: 30, y: 0, z: 120}
  - {x: 40, y: 0, z: 120}
  - {x: -50, y: 0, z: 130}
  - {x: -40, y: 0, z: 130}
  - {x: -30, y: 0, z: 130}
  - {x: -20, y: 0, z: 130}
  - {x: -10, y: 0, z: 130}
  - {x: 0, y: 0, z: 130}
  - {x: 10, y: 0, z: 130}
  - {x: 20, y: 0, z: 130}
  - {x: 30, y: 0, z: 130}
  - {x: 40, y: 0, z: 130}
  - {x: -50, y: 0, z: 140}
  - {x: -40, y: 0, z: 140}
  - {x: -30, y: 0, z: 140}
  - {x: -20, y: 0, z: 140}
  - {x: -10, y: 0, z: 140}
  - {x: 0, y: 0, z: 140}
  - {x: 10, y: 0, z: 140}
  - {x: 20, y: 0, z: 140}
  - {x: 30, y: 0, z: 140}
  - {x: 40, y: 0, z: 140}
  - {x: -50, y: 0, z: 150}
  - {x: -40, y: 0, z: 150}
  - {x: -30, y: 0, z: 150}
  - {x: -20, y: 0, z: 150}
  - {x: -10, y: 0, z: 150}
  - {x: 0, y: 0, z: 150}
  - {x: 10, y: 0, z: 150}
  - {x: 20, y: 0, z: 150}
  - {x: 30, y: 0, z: 150}
  - {x: 40, y: 0, z: 150}
  - {x: -50, y: 0, z: 160}
  - {x: -40, y: 0, z: 160}
  - {x: -30, y: 0, z: 160}
  - {x: -20, y: 0, z: 160}
  - {x: -10, y: 0, z: 160}
  - {x: 0, y: 0, z: 160}
  - {x: 10, y: 0, z: 160}
  - {x: 20, y: 0, z: 160}
  - {x: 30, y: 0, z: 160}
  - {x: 40, y: 0, z: 160}
  - {x: -50, y: 0, z: 170}
  - {x: -40, y: 0, z: 170}
  - {x: -30, y: 0, z: 170}
  - {x: -20, y: 0, z: 170}
  - {x: -10, y: 0, z: 170}
  - {x: 0, y: 0, z: 170}
  - {x: 10, y: 0, z: 170}
  - {x: 20, y: 0, z: 170}
  - {x: 30, y: 0, z: 170}
  - {x: 40, y: 0, z: 170}
