# Blender 3.3.0
# www.blender.org
mtllib untitled.mtl
o Cube
v -0.382713 3.190565 2.368850
v -0.382713 3.955990 2.368850
v 0.000000 3.474304 0.023169
v 0.000000 4.123810 0.023169
v 0.000000 3.474304 2.368850
v 0.000000 3.902247 2.368850
v -0.837887 3.955990 3.554768
v -1.293060 3.955990 4.740686
v -1.293060 3.190565 4.740686
v -0.837887 3.190565 3.554768
v -1.338970 3.318686 4.860300
v -1.338970 3.827869 4.860300
v -1.702324 3.827869 5.806990
v -1.702324 3.318686 5.806990
v -0.883796 3.318686 3.674381
v -0.883796 3.827869 3.674381
v -1.247151 3.827869 4.621072
v -1.247151 3.318686 4.621072
v -1.338970 3.827869 4.703257
v -1.338970 3.318686 4.703257
v -1.702324 3.318686 5.649948
v -1.702324 3.827869 5.649948
v -0.883796 3.827869 3.517339
v -0.883796 3.318686 3.517339
v -1.247151 3.318686 4.464030
v -1.247151 3.827869 4.464030
v -0.382713 3.573277 2.368850
v -0.382713 3.573277 0.302214
v -1.748234 3.573277 5.926604
v -1.748234 3.573277 1.959071
v 0.000000 3.799057 2.368850
v 0.000000 3.979345 -0.244155
v -0.837887 3.573277 3.554768
v -1.293060 3.573277 4.740686
v -0.837887 3.573277 0.854499
v -1.293060 3.573277 1.406785
v -1.338970 3.573277 4.860300
v -1.702324 3.573277 5.806990
v -0.883796 3.573277 3.674381
v -1.247151 3.573277 4.621072
v -1.338970 3.573277 4.703257
v -1.702324 3.573277 5.649948
v -0.883796 3.573277 3.517339
v -1.247151 3.573277 4.464030
v -0.382713 3.190565 0.903965
v -0.382713 3.573277 0.302214
v -0.117431 3.387242 0.108791
v -0.382713 3.573277 0.302214
v -0.382713 3.955990 0.903965
v -0.091227 4.083807 0.089685
v -1.748234 3.573277 1.959071
v -1.748234 3.573277 1.959071
v -0.837887 3.190565 1.456250
v -0.837887 3.573277 0.854499
v -1.293060 3.573277 1.406785
v -1.293060 3.190565 2.008536
v -1.293060 3.955990 2.008536
v -1.293060 3.573277 1.406785
v -0.837887 3.573277 0.854499
v -0.837887 3.955990 1.456250
v -1.748234 3.284890 5.926604
v -1.653908 3.190565 5.680846
v -1.724334 3.257263 5.864335
v -1.653908 3.955990 5.680846
v -1.748234 3.861665 5.926604
v -1.724334 3.889292 5.864335
v -1.653908 3.190565 2.446372
v -1.748234 3.284890 2.412511
v -1.748234 3.861665 2.412511
v -1.653908 3.955990 2.446372
v 0.382713 3.190565 2.368850
v 0.382713 3.955990 2.368850
v 0.837887 3.955990 3.554768
v 1.293060 3.955990 4.740686
v 1.293060 3.190565 4.740686
v 0.837887 3.190565 3.554768
v 1.338970 3.318686 4.860300
v 1.338970 3.827869 4.860300
v 1.702324 3.827869 5.806990
v 1.702324 3.318686 5.806990
v 0.883796 3.318686 3.674381
v 0.883796 3.827869 3.674381
v 1.247151 3.827869 4.621072
v 1.247151 3.318686 4.621072
v 1.338970 3.827869 4.703257
v 1.338970 3.318686 4.703257
v 1.702324 3.318686 5.649948
v 1.702324 3.827869 5.649948
v 0.883796 3.827869 3.517339
v 0.883796 3.318686 3.517339
v 1.247151 3.318686 4.464030
v 1.247151 3.827869 4.464030
v 0.382713 3.573277 2.368850
v 0.382713 3.573277 0.302214
v 1.748234 3.573277 5.926604
v 1.748234 3.573277 1.959071
v 0.837887 3.573277 3.554768
v 1.293060 3.573277 4.740686
v 0.837887 3.573277 0.854499
v 1.293060 3.573277 1.406785
v 1.338970 3.573277 4.860300
v 1.702324 3.573277 5.806990
v 0.883796 3.573277 3.674381
v 1.247151 3.573277 4.621072
v 1.338970 3.573277 4.703257
v 1.702324 3.573277 5.649948
v 0.883796 3.573277 3.517339
v 1.247151 3.573277 4.464030
v 0.382713 3.190565 0.903965
v 0.382713 3.573277 0.302214
v 0.117431 3.387242 0.108791
v 0.382713 3.573277 0.302214
v 0.382713 3.955990 0.903965
v 0.091227 4.083807 0.089685
v 1.748234 3.573277 1.959071
v 1.748234 3.573277 1.959071
v 0.837887 3.190565 1.456250
v 0.837887 3.573277 0.854499
v 1.293060 3.573277 1.406785
v 1.293060 3.190565 2.008536
v 1.293060 3.955990 2.008536
v 1.293060 3.573277 1.406785
v 0.837887 3.573277 0.854499
v 0.837887 3.955990 1.456250
v 1.748234 3.284890 5.926604
v 1.653908 3.190565 5.680846
v 1.724334 3.257263 5.864335
v 1.653908 3.955990 5.680846
v 1.748234 3.861665 5.926604
v 1.724334 3.889292 5.864335
v 1.653908 3.190565 2.446372
v 1.748234 3.284890 2.412511
v 1.748234 3.861665 2.412511
v 1.653908 3.955990 2.446372
vn -1.0000 -0.0000 -0.0000
vn -0.0000 -0.0000 1.0000
vn -0.0000 -1.0000 -0.0000
vn -0.7717 -0.0000 -0.6360
vn 1.0000 -0.0000 -0.0000
vn 0.9336 -0.0000 0.3583
vn -0.6111 -0.3124 -0.7273
vn -0.8421 0.4046 -0.3567
vn -0.0000 1.0000 -0.0000
vn -0.5457 -0.7071 -0.4497
vn -0.0945 0.9940 0.0557
vn 0.5956 -0.8033 -0.0000
vn -0.7010 -0.6017 -0.3827
vn -0.8817 0.3980 -0.2532
vn -0.5457 0.7071 -0.4497
vn -0.9336 -0.0000 -0.3583
vn -0.7071 -0.7071 -0.0000
vn -0.7071 0.7071 -0.0000
vn 0.7717 -0.0000 -0.6360
vn -0.9336 -0.0000 0.3583
vn 0.6111 -0.3124 -0.7273
vn 0.8421 0.4046 -0.3567
vn 0.5457 -0.7071 -0.4497
vn 0.0945 0.9940 0.0557
vn -0.5956 -0.8033 -0.0000
vn 0.7010 -0.6017 -0.3827
vn 0.8817 0.3980 -0.2532
vn 0.5457 0.7071 -0.4497
vn 0.9336 -0.0000 -0.3583
vn 0.7071 -0.7071 -0.0000
vn 0.7071 0.7071 -0.0000
vt 0.375000 1.000000
vt 0.125000 0.750000
vt 0.625000 1.000000
vt 0.875000 0.750000
vt 0.375000 0.375000
vt 0.250000 0.500000
vt 0.625000 0.375000
vt 0.750000 0.500000
vt 0.250000 0.750000
vt 0.375000 0.875000
vt 0.625000 0.875000
vt 0.750000 0.750000
vt 0.625000 1.000000
vt 0.875000 0.750000
vt 0.625000 1.000000
vt 0.875000 0.750000
vt 0.125000 0.750000
vt 0.375000 1.000000
vt 0.375000 1.000000
vt 0.125000 0.750000
vt 0.416846 1.000000
vt 0.583154 1.000000
vt 0.583154 1.000000
vt 0.416846 1.000000
vt 0.416846 1.000000
vt 0.583154 1.000000
vt 0.583154 1.000000
vt 0.416846 1.000000
vt 0.583154 1.000000
vt 0.416846 1.000000
vt 0.416846 1.000000
vt 0.583154 1.000000
vt 0.583154 1.000000
vt 0.416846 1.000000
vt 0.416846 1.000000
vt 0.583154 1.000000
vt 0.500000 1.000000
vt 0.500000 0.250000
vt 0.500000 0.000000
vt 0.500000 1.000000
vt 0.500000 0.250000
vt 0.500000 0.875000
vt 0.500000 0.375000
vt 0.500000 1.000000
vt 0.500000 1.000000
vt 0.500000 0.250000
vt 0.500000 0.250000
vt 0.500000 1.000000
vt 0.500000 1.000000
vt 0.500000 1.000000
vt 0.500000 1.000000
vt 0.500000 1.000000
vt 0.500000 1.000000
vt 0.500000 1.000000
vt 0.500000 1.000000
vt 0.125000 0.572793
vt 0.500000 0.250000
vt 0.184803 0.514760
vt 0.125000 0.500000
vt 0.375000 0.336645
vt 0.211645 0.500000
vt 0.500000 0.250000
vt 0.875000 0.500000
vt 0.875000 0.572793
vt 0.625000 0.345204
vt 0.779796 0.500000
vt 0.125000 0.500000
vt 0.500000 0.250000
vt 0.500000 0.250000
vt 0.875000 0.500000
vt 0.125000 0.555712
vt 0.500000 0.250000
vt 0.125000 0.500000
vt 0.500000 0.250000
vt 0.125000 0.500000
vt 0.125000 0.545124
vt 0.875000 0.545124
vt 0.500000 0.250000
vt 0.875000 0.500000
vt 0.500000 0.250000
vt 0.875000 0.500000
vt 0.875000 0.555712
vt 0.405808 1.000000
vt 0.405808 0.000000
vt 0.125000 0.750000
vt 0.375000 0.015486
vt 0.125000 0.750000
vt 0.375000 1.000000
vt 0.396785 0.003924
vt 0.396785 1.000000
vt 0.625000 1.000000
vt 0.625000 0.015486
vt 0.875000 0.750000
vt 0.594192 1.000000
vt 0.594192 0.000000
vt 0.875000 0.750000
vt 0.603215 1.000000
vt 0.603215 0.003924
vt 0.125000 0.539411
vt 0.125000 0.528572
vt 0.405808 0.221428
vt 0.125000 0.537917
vt 0.594192 0.221428
vt 0.875000 0.528572
vt 0.875000 0.537917
vt 0.875000 0.539411
vt 0.375000 1.000000
vt 0.125000 0.750000
vt 0.625000 1.000000
vt 0.875000 0.750000
vt 0.625000 1.000000
vt 0.875000 0.750000
vt 0.625000 1.000000
vt 0.875000 0.750000
vt 0.125000 0.750000
vt 0.375000 1.000000
vt 0.375000 1.000000
vt 0.125000 0.750000
vt 0.416846 1.000000
vt 0.583154 1.000000
vt 0.583154 1.000000
vt 0.416846 1.000000
vt 0.416846 1.000000
vt 0.583154 1.000000
vt 0.583154 1.000000
vt 0.416846 1.000000
vt 0.583154 1.000000
vt 0.416846 1.000000
vt 0.416846 1.000000
vt 0.583154 1.000000
vt 0.583154 1.000000
vt 0.416846 1.000000
vt 0.416846 1.000000
vt 0.583154 1.000000
vt 0.500000 1.000000
vt 0.500000 0.250000
vt 0.500000 0.000000
vt 0.500000 1.000000
vt 0.500000 0.250000
vt 0.500000 1.000000
vt 0.500000 1.000000
vt 0.500000 0.250000
vt 0.500000 0.250000
vt 0.500000 1.000000
vt 0.500000 1.000000
vt 0.500000 1.000000
vt 0.500000 1.000000
vt 0.500000 1.000000
vt 0.500000 1.000000
vt 0.500000 1.000000
vt 0.500000 1.000000
vt 0.125000 0.572793
vt 0.500000 0.250000
vt 0.184803 0.514760
vt 0.125000 0.500000
vt 0.375000 0.336645
vt 0.211645 0.500000
vt 0.500000 0.250000
vt 0.875000 0.500000
vt 0.875000 0.572793
vt 0.625000 0.345204
vt 0.779796 0.500000
vt 0.125000 0.500000
vt 0.500000 0.250000
vt 0.500000 0.250000
vt 0.875000 0.500000
vt 0.125000 0.555712
vt 0.500000 0.250000
vt 0.125000 0.500000
vt 0.500000 0.250000
vt 0.125000 0.500000
vt 0.125000 0.545124
vt 0.875000 0.545124
vt 0.500000 0.250000
vt 0.875000 0.500000
vt 0.500000 0.250000
vt 0.875000 0.500000
vt 0.875000 0.555712
vt 0.405808 1.000000
vt 0.405808 0.000000
vt 0.125000 0.750000
vt 0.375000 0.015486
vt 0.125000 0.750000
vt 0.375000 1.000000
vt 0.396785 0.003924
vt 0.396785 1.000000
vt 0.625000 1.000000
vt 0.625000 0.015486
vt 0.875000 0.750000
vt 0.594192 1.000000
vt 0.594192 0.000000
vt 0.875000 0.750000
vt 0.603215 1.000000
vt 0.603215 0.003924
vt 0.125000 0.539411
vt 0.125000 0.528572
vt 0.405808 0.221428
vt 0.125000 0.537917
vt 0.594192 0.221428
vt 0.875000 0.528572
vt 0.875000 0.537917
vt 0.875000 0.539411
s 0
f 29/39/1 65/95/1 69/103/1 52/69/1 30/41/1
f 31/42/2 6/11/2 2/3/2 27/37/2
f 56/76/3 9/17/3 62/87/3 67/99/3
f 35/46/4 54/72/4 55/74/4 36/47/4
f 40/51/5 18/28/5 25/35/5 44/55/5
f 58/78/4 36/47/4 30/41/4 52/69/4
f 8/15/6 64/91/6 66/97/6 13/23/6 12/22/6
f 28/38/4 46/57/4 54/72/4 35/46/4
f 48/62/4 28/38/4 35/46/4 59/80/4
f 47/60/7 46/57/7 28/38/7 32/43/7 3/5/7
f 59/80/4 35/46/4 36/47/4 58/78/4
f 28/38/8 48/62/8 50/65/8 4/7/8 32/43/8
f 27/37/6 2/3/6 7/13/6 33/44/6
f 12/22/3 13/23/3 22/32/3 19/29/3
f 2/4/9 49/64/9 60/82/9 7/14/9
f 53/71/3 10/20/3 9/17/3 56/76/3
f 34/45/6 8/15/6 12/22/6 37/48/6
f 56/76/10 67/99/10 68/100/10 51/67/10 55/75/10
f 61/84/1 29/39/1 30/41/1 51/68/1 68/101/1
f 29/40/6 61/83/6 63/90/6 14/24/6 38/49/6
f 33/44/6 7/13/6 16/26/6 39/50/6
f 7/13/6 8/15/6 17/27/6 16/26/6
f 34/45/6 9/18/6 18/28/6 40/51/6
f 9/18/6 10/19/6 15/25/6 18/28/6
f 41/52/6 19/29/6 22/32/6 42/53/6
f 43/54/6 23/33/6 26/36/6 44/55/6
f 37/48/1 12/22/1 19/29/1 41/52/1
f 18/28/9 15/25/9 24/34/9 25/35/9
f 38/49/5 14/24/5 21/31/5 42/53/5
f 14/24/9 11/21/9 20/30/9 21/31/9
f 16/26/3 17/27/3 26/36/3 23/33/3
f 39/50/1 16/26/1 23/33/1 43/54/1
f 15/25/1 39/50/1 43/54/1 24/34/1
f 13/23/5 38/49/5 42/53/5 22/32/5
f 11/21/1 37/48/1 41/52/1 20/30/1
f 24/34/6 43/54/6 44/55/6 25/35/6
f 20/30/6 41/52/6 42/53/6 21/31/6
f 8/15/6 34/45/6 40/51/6 17/27/6
f 10/19/6 33/44/6 39/50/6 15/25/6
f 8/16/9 57/77/9 70/106/9 64/93/9
f 9/18/6 34/45/6 37/48/6 11/21/6
f 7/14/9 60/82/9 57/77/9 8/16/9
f 4/8/11 50/66/11 49/64/11 2/4/11 6/12/11
f 1/1/6 27/37/6 33/44/6 10/19/6
f 45/56/12 47/61/12 3/6/12 5/9/12 1/2/12
f 17/27/5 40/51/5 44/55/5 26/36/5
f 36/47/4 55/74/4 51/68/4 30/41/4
f 5/10/2 31/42/2 27/37/2 1/1/2
f 66/97/6 65/94/6 29/40/6 38/49/6 13/23/6
f 45/56/13 46/58/13 47/61/13
f 48/63/14 49/64/14 50/66/14
f 69/104/15 70/106/15 57/77/15 58/79/15 52/70/15
f 60/82/15 49/64/15 48/63/15 59/81/15
f 45/56/10 53/71/10 54/73/10 46/59/10
f 53/71/10 56/76/10 55/75/10 54/73/10
f 57/77/15 60/82/15 59/81/15 58/79/15
f 45/56/3 1/2/3 10/20/3 53/71/3
f 61/84/16 62/86/16 63/89/16
f 64/92/16 65/95/16 66/98/16
f 67/99/17 62/87/17 61/85/17 68/102/17
f 69/105/18 65/96/18 64/93/18 70/106/18
f 63/90/6 62/88/6 9/18/6 11/21/6 14/24/6
f 95/137/5 96/139/5 116/165/5 133/199/5 129/191/5
f 31/42/2 93/135/2 72/109/2 6/11/2
f 120/172/3 131/195/3 126/183/3 75/115/3
f 99/142/19 100/143/19 119/170/19 118/168/19
f 104/147/1 108/151/1 91/133/1 84/126/1
f 122/174/19 116/165/19 96/139/19 100/143/19
f 74/113/20 78/120/20 79/121/20 130/193/20 128/187/20
f 94/136/19 99/142/19 118/168/19 110/153/19
f 112/158/19 123/176/19 99/142/19 94/136/19
f 111/156/21 3/5/21 32/43/21 94/136/21 110/153/21
f 123/176/19 122/174/19 100/143/19 99/142/19
f 94/136/22 32/43/22 4/7/22 114/161/22 112/158/22
f 93/135/20 97/140/20 73/111/20 72/109/20
f 78/120/3 85/127/3 88/130/3 79/121/3
f 72/110/9 73/112/9 124/178/9 113/160/9
f 117/167/3 120/172/3 75/115/3 76/118/3
f 98/141/20 101/144/20 78/120/20 74/113/20
f 120/172/23 119/171/23 115/163/23 132/196/23 131/195/23
f 125/180/5 132/197/5 115/164/5 96/139/5 95/137/5
f 95/138/20 102/145/20 80/122/20 127/186/20 125/179/20
f 97/140/20 103/146/20 82/124/20 73/111/20
f 73/111/20 82/124/20 83/125/20 74/113/20
f 98/141/20 104/147/20 84/126/20 75/116/20
f 75/116/20 84/126/20 81/123/20 76/117/20
f 105/148/20 106/149/20 88/130/20 85/127/20
f 107/150/20 108/151/20 92/134/20 89/131/20
f 101/144/5 105/148/5 85/127/5 78/120/5
f 84/126/9 91/133/9 90/132/9 81/123/9
f 102/145/1 106/149/1 87/129/1 80/122/1
f 80/122/9 87/129/9 86/128/9 77/119/9
f 82/124/3 89/131/3 92/134/3 83/125/3
f 103/146/5 107/150/5 89/131/5 82/124/5
f 81/123/5 90/132/5 107/150/5 103/146/5
f 79/121/1 88/130/1 106/149/1 102/145/1
f 77/119/5 86/128/5 105/148/5 101/144/5
f 90/132/20 91/133/20 108/151/20 107/150/20
f 86/128/20 87/129/20 106/149/20 105/148/20
f 74/113/20 83/125/20 104/147/20 98/141/20
f 76/117/20 81/123/20 103/146/20 97/140/20
f 74/114/9 128/189/9 134/202/9 121/173/9
f 75/116/20 77/119/20 101/144/20 98/141/20
f 73/112/9 74/114/9 121/173/9 124/178/9
f 4/8/24 6/12/24 72/110/24 113/160/24 114/162/24
f 71/107/20 76/117/20 97/140/20 93/135/20
f 109/152/25 71/108/25 5/9/25 3/6/25 111/157/25
f 83/125/1 92/134/1 108/151/1 104/147/1
f 100/143/19 96/139/19 115/164/19 119/170/19
f 5/10/2 71/107/2 93/135/2 31/42/2
f 130/193/20 79/121/20 102/145/20 95/138/20 129/190/20
f 109/152/26 111/157/26 110/154/26
f 112/159/27 114/162/27 113/160/27
f 133/200/28 116/166/28 122/175/28 121/173/28 134/202/28
f 124/178/28 123/177/28 112/159/28 113/160/28
f 109/152/23 110/155/23 118/169/23 117/167/23
f 117/167/23 118/169/23 119/171/23 120/172/23
f 121/173/28 122/175/28 123/177/28 124/178/28
f 109/152/3 117/167/3 76/118/3 71/108/3
f 125/180/29 127/185/29 126/182/29
f 128/188/29 130/194/29 129/191/29
f 131/195/30 132/198/30 125/181/30 126/183/30
f 133/201/31 134/202/31 128/189/31 129/192/31
f 127/186/20 80/122/20 77/119/20 75/116/20 126/184/20
